,------.,--.                ,--.  ,--.                                        ,--.      ,------.                                  ,--.
|  .---'|  | ,--,--. ,---.,-'  '-.`--' ,---. ,---. ,---.  ,--,--.,--.--. ,---.|  ,---.  |  .---',--.  ,--.,--,--.,--,--,--. ,---. |  |,---.
|  `--, |  |' ,-.  |(  .-''-.  .-',--.| .--'(  .-'| .-. :' ,-.  ||  .--'| .--'|  .-.  | |  `--,  \  `'  /' ,-.  ||        || .-. ||  | .-. :
|  `---.|  |\ '-'  |.-'  `) |  |  |  |\ `--..-'  `)   --.\ '-'  ||  |   \ `--.|  | |  | |  `---. /  /.  \\ '-'  ||  |  |  || '-' '|  \   --.
`------'`--' `--`--'`----'  `--'  `--' `---'`----' `----' `--`--'`--'    `---'`--' `--' `------''--'  '--'`--`--'`--`--`--'|  |-' `--'`----'
                                                                                                                           `--'
${application.title} ${application.version}
Powered by Spring Boot ${AnsiStyle.BOLD} ${spring-boot.version} ${AnsiStyle.NORMAL}
Java Version: ${AnsiStyle.BOLD} 21 ${AnsiStyle.NORMAL}